Aggregate data — st_aggregate • serotrackr
…
st_aggregate(validated_df)
#> # A tibble: 28 × 27
#>    dataset_id subgroup  strata age_group age_min age_max sex   pop_adj test_adj
#>         <dbl> <chr>     <chr>  <chr>       <int>   <int> <chr> <lgl>   <lgl>   
#>  1          1 overall   NA     All             1     119 All   FALSE   FALSE   
#>  2          2 overall   NA     All             1     107 All   FALSE   FALSE   
#>  3          1 age_group 0-9    0-9             1       7 All   FALSE   FALSE   
#>  4          1 age_group 10-19  10-19          10      19 All   FALSE   FALSE   
#>  5          1 age_group 20-29  20-29          20      29 All   FALSE   FALSE   
#>  6          1 age_group 30-39  30-39          30      38 All   FALSE   FALSE   
#>  7          1 age_group 40+    40+            47     119 All   FALSE   FALSE   
#>  8          2 age_group 0-9    0-9             1       9 All   FALSE   FALSE   
#>  9          2 age_group 10-19  10-19          11      19 All   FALSE   FALSE   
#> 10          2 age_group 20-29  20-29          20      29 All   FALSE   FALSE   
#> # ℹ 18 more rows
#> # ℹ 18 more variables: adm1 <chr>, adm2 <chr>, start_date <date>,
#> #   end_date <date>, test_id_1 <chr>, test_id_2 <chr>, test_id_3 <chr>,
#> #   test_combination <lgl>, numerator <dbl>, denominator <int>, seroprev <dbl>,
#> #   seroprev_95_ci_lower <dbl>, seroprev_95_ci_upper <dbl>,
#> #   ab_denominator <int>, ab_titer_min <dbl>, ab_titer_max <dbl>,
#> #   ab_titer_mean <dbl>, ab_titer_sd <dbl>
…
