Convert region names to codes — st_locate • serotrackr
…
    Examples

st_locate(
  data = sample_raw_data,
  adm0 = regions$adm0$Canada,
  adm1 = state,
  adm2 = city,
  "Toronoto" = regions$adm2$Canada$Ontario$Toronto,
  "Calagry"  = regions$adm2$Canada$Alberta$Calgary
)
#> ✔ adm1 region names/codes were successfully matched. `adm1` column was added.
#> ✔ adm2 region names/codes were successfully matched. `adm2` column was added.
#> # A tibble: 100 × 15
#>    dataset_id    id age_group   age sex   country state   city     start_date 
#>         <int> <int> <chr>     <dbl> <chr> <chr>   <chr>   <chr>    <chr>      
#>  1          1     1 65+         999 m     Canada  ontario Toronoto 2023/Jan/01
#>  2          1     2 0-17          8 f     Canada  ontario London   2023/Jan/01
#>  3          1     3 65+          67 m     Canada  Alberta Calagry  2023/Jan/01
#>  4          1     4 NA         -999 f     Canada  ontario toronto  2023/Jan/01
#>  5          1     5 0-17          9 m     Canada  ontario Toronoto 2023/Jan/01
#>  6          1     6 18-64        43 m     Canada  Alberta Edmonton 2023/Jan/01
#>  7          1     7 18-64        18 f     Canada  Alberta Edmonton 2023/Jan/01
#>  8          1     8 65+          83 f     Canada  Alberta Calgary  2023/Jan/01
#>  9          1     9 65+          77 f     Canada  Alberta Calgary  2023/Jan/01
#> 10          1    10 65+          77 m     Canada  Alberta Calagry  2023/Jan/01
#> # ℹ 90 more rows
#> # ℹ 6 more variables: end_date <chr>, test_id <chr>, result <dbl>,
#> #   result_cat <chr>, adm1 <chr>, adm2 <chr>
…
