Validate individual level data — st_validate • serotrackr
…
#> ℹ test_id ...
#> ✔ test_id is a valid string. [7ms]
#> ℹ result ...
#> ✔ result is a valid column. [10ms]
#> ℹ result_cat ...
#> ✔ result_cat is a valid string. [8ms]
#> ℹ dataset_id ...
#> ✔ dataset_id is a valid column. [3ms]
#> ℹ id ...
#> ✔ id is a valid column. [12ms]
#> 
#> ── Validation finished ─────────────────────────────────────────────────────────
#> Success! Validated data created.
#> 
#> # A tibble: 100 × 12
#>    dataset_id    id age_group sex   adm1             adm2  collection_start_date
#>         <dbl> <dbl> <chr>     <chr> <chr>            <chr> <date>               
#>  1          1     1 12-17     Male  4576071B9681799… 7649… 2023-01-01           
#>  2          1     2 12-17     Male  4576071B9681799… 7649… 2023-01-01           
#>  3          1     3 12-17     Male  4576071B9681799… 7649… 2023-01-01           
#>  4          1    28 12-17     Male  4576071B9681799… 7649… 2023-01-01           
#>  5          2    33 12-17     Male  4576071B9681799… 7649… 2023-01-01           
#>  6          2    65 12-17     Male  4576071B9681799… 7649… 2023-01-01           
#>  7          2    47 12-17     Male  4576071B9681799… 7649… 2023-01-01           
#>  8          2    44 12-17     Male  4576071B9681799… 7649… 2023-01-01           
#>  9          1    58 12-17     Male  4576071B9681799… 7649… 2023-01-01           
#> 10          1    24 12-17     Male  4576071B9681799… 7649… 2023-01-01           
#> # ℹ 90 more rows
#> # ℹ 5 more variables: collection_end_date <date>, test_id <chr>, result <dbl>,
#> #   result_cat <chr>, another_col <chr>
…
